EESchema Schematic File Version 4
EELAYER 30 0
EELAYER END
$Descr A4 11693 8268
encoding utf-8
Sheet 1 1
Title ""
Date ""
Rev ""
Comp ""
Comment1 ""
Comment2 ""
Comment3 ""
Comment4 ""
$EndDescr
$Comp
L seeeduino_xiao:SeeeduinoXIAO U?
U 1 1 608CFBB6
P 7500 3000
F 0 "U?" H 7475 2061 50  0000 C CNN
F 1 "SeeeduinoXIAO" H 7475 1970 50  0000 C CNN
F 2 "" H 7150 3200 50  0001 C CNN
F 3 "" H 7150 3200 50  0001 C CNN
	1    7500 3000
	1    0    0    -1  
$EndComp
Text GLabel 2700 5650 3    50   Output ~ 0
VCC
Text GLabel 2850 5650 3    50   Output ~ 0
CLOCK
Text GLabel 3000 5650 3    50   Output ~ 0
LOAD
Text GLabel 3150 5650 3    50   Input ~ 0
DATA
Text GLabel 3300 5650 3    50   UnSpc ~ 0
GND
Wire Wire Line
	3150 5650 3150 3000
Wire Wire Line
	3150 3000 6650 3000
Wire Wire Line
	3000 5650 3000 2850
Wire Wire Line
	3000 2850 6650 2850
Wire Wire Line
	2850 5650 2850 2700
Wire Wire Line
	2850 2700 6650 2700
$Comp
L Memory_EEPROM:24LC256 EEPROM
U 1 1 608D5E14
P 5500 4650
F 0 "EEPROM" H 5200 5000 50  0000 C CNN
F 1 "24LC256" H 5200 4900 50  0000 C CNN
F 2 "" H 5500 4650 50  0001 C CNN
F 3 "http://ww1.microchip.com/downloads/en/devicedoc/21203m.pdf" H 5500 4650 50  0001 C CNN
	1    5500 4650
	1    0    0    -1  
$EndComp
Wire Wire Line
	6650 3150 5950 3150
Wire Wire Line
	5950 3150 5950 3850
Wire Wire Line
	5950 4550 5900 4550
Wire Wire Line
	5900 4650 6050 4650
Wire Wire Line
	6050 4650 6050 4100
Wire Wire Line
	6050 3300 6650 3300
$Comp
L power:GND #PWR?
U 1 1 608E0C60
P 3500 5650
F 0 "#PWR?" H 3500 5400 50  0001 C CNN
F 1 "GND" H 3505 5477 50  0000 C CNN
F 2 "" H 3500 5650 50  0001 C CNN
F 3 "" H 3500 5650 50  0001 C CNN
	1    3500 5650
	1    0    0    -1  
$EndComp
$Comp
L power:GND #PWR?
U 1 1 608E2091
P 6050 5650
F 0 "#PWR?" H 6050 5400 50  0001 C CNN
F 1 "GND" H 6055 5477 50  0000 C CNN
F 2 "" H 6050 5650 50  0001 C CNN
F 3 "" H 6050 5650 50  0001 C CNN
	1    6050 5650
	1    0    0    -1  
$EndComp
Wire Wire Line
	5100 4750 5000 4750
Wire Wire Line
	5100 4650 5000 4650
Wire Wire Line
	5000 4650 5000 4750
Connection ~ 5000 4750
Wire Wire Line
	5100 4550 5000 4550
Wire Wire Line
	5000 4550 5000 4650
Connection ~ 5000 4650
Wire Wire Line
	5900 4750 6050 4750
Wire Wire Line
	3300 5650 3300 5150
Wire Wire Line
	3300 5150 3500 5150
Wire Wire Line
	3500 5150 3500 5650
$Comp
L power:+3.3V #PWR?
U 1 1 608E3A70
P 2700 5150
F 0 "#PWR?" H 2700 5000 50  0001 C CNN
F 1 "+3.3V" H 2715 5323 50  0000 C CNN
F 2 "" H 2700 5150 50  0001 C CNN
F 3 "" H 2700 5150 50  0001 C CNN
	1    2700 5150
	1    0    0    -1  
$EndComp
$Comp
L power:+3.3V #PWR?
U 1 1 608E5111
P 5500 3700
F 0 "#PWR?" H 5500 3550 50  0001 C CNN
F 1 "+3.3V" H 5515 3873 50  0000 C CNN
F 2 "" H 5500 3700 50  0001 C CNN
F 3 "" H 5500 3700 50  0001 C CNN
	1    5500 3700
	1    0    0    -1  
$EndComp
$Comp
L power:+3.3V #PWR?
U 1 1 608E6132
P 8500 2200
F 0 "#PWR?" H 8500 2050 50  0001 C CNN
F 1 "+3.3V" H 8515 2373 50  0000 C CNN
F 2 "" H 8500 2200 50  0001 C CNN
F 3 "" H 8500 2200 50  0001 C CNN
	1    8500 2200
	1    0    0    -1  
$EndComp
$Comp
L power:GND #PWR?
U 1 1 608E78EE
P 8750 5650
F 0 "#PWR?" H 8750 5400 50  0001 C CNN
F 1 "GND" H 8755 5477 50  0000 C CNN
F 2 "" H 8750 5650 50  0001 C CNN
F 3 "" H 8750 5650 50  0001 C CNN
	1    8750 5650
	1    0    0    -1  
$EndComp
Wire Wire Line
	8300 2850 8500 2850
Wire Wire Line
	8500 2850 8500 2200
Wire Wire Line
	5500 4350 5500 4100
$Comp
L Device:R R?
U 1 1 608E98EB
P 5700 3850
F 0 "R?" H 5770 3896 50  0001 L CNN
F 1 "2kΩ" V 5815 3850 50  0000 C CNN
F 2 "" V 5630 3850 50  0001 C CNN
F 3 "~" H 5700 3850 50  0001 C CNN
	1    5700 3850
	0    -1   -1   0   
$EndComp
$Comp
L Device:R R?
U 1 1 608ECD32
P 5700 4100
F 0 "R?" H 5770 4146 50  0001 L CNN
F 1 "2kΩ" V 5815 4100 50  0000 C CNN
F 2 "" V 5630 4100 50  0001 C CNN
F 3 "~" H 5700 4100 50  0001 C CNN
	1    5700 4100
	0    -1   -1   0   
$EndComp
Wire Wire Line
	5850 3850 5950 3850
Connection ~ 5950 3850
Wire Wire Line
	5950 3850 5950 4550
Wire Wire Line
	5850 4100 6050 4100
Connection ~ 6050 4100
Wire Wire Line
	6050 4100 6050 3300
Wire Wire Line
	5550 3850 5500 3850
Connection ~ 5500 3850
Wire Wire Line
	5500 3850 5500 3700
Wire Wire Line
	5550 4100 5500 4100
Connection ~ 5500 4100
Wire Wire Line
	5500 4100 5500 3850
Wire Wire Line
	2700 5650 2700 5150
Wire Wire Line
	8750 2700 8750 5650
Wire Wire Line
	8300 2700 8750 2700
Text GLabel 4050 5650 3    50   Output ~ 0
VCC
Text GLabel 4200 5650 3    50   BiDi ~ 0
SDA
Text GLabel 4500 5650 3    50   UnSpc ~ 0
GND
$Comp
L power:GND #PWR?
U 1 1 608F63D2
P 4700 5650
F 0 "#PWR?" H 4700 5400 50  0001 C CNN
F 1 "GND" H 4705 5477 50  0000 C CNN
F 2 "" H 4700 5650 50  0001 C CNN
F 3 "" H 4700 5650 50  0001 C CNN
	1    4700 5650
	1    0    0    -1  
$EndComp
Wire Wire Line
	4500 5650 4500 5150
Wire Wire Line
	4500 5150 4700 5150
Wire Wire Line
	4700 5150 4700 5650
$Comp
L power:+3.3V #PWR?
U 1 1 608F63DB
P 4050 5150
F 0 "#PWR?" H 4050 5000 50  0001 C CNN
F 1 "+3.3V" H 4065 5323 50  0000 C CNN
F 2 "" H 4050 5150 50  0001 C CNN
F 3 "" H 4050 5150 50  0001 C CNN
	1    4050 5150
	1    0    0    -1  
$EndComp
Wire Wire Line
	4050 5650 4050 5150
Text GLabel 4350 5650 3    50   Output ~ 0
SCL
Wire Wire Line
	4350 5650 4350 3300
Wire Wire Line
	4350 3300 6050 3300
Connection ~ 6050 3300
Wire Wire Line
	5950 3150 4200 3150
Wire Wire Line
	4200 3150 4200 5650
Connection ~ 5950 3150
Wire Wire Line
	6050 4750 6050 5150
Wire Wire Line
	5000 5150 5500 5150
Wire Wire Line
	5000 4750 5000 5150
Connection ~ 6050 5150
Wire Wire Line
	6050 5150 6050 5650
Wire Wire Line
	5500 4950 5500 5150
Connection ~ 5500 5150
Wire Wire Line
	5500 5150 6050 5150
Text Notes 3350 6100 2    50   ~ 0
SNES Controller
Text Notes 4600 6150 2    50   ~ 0
128x64 OLED\nSSD1306(I2C)
$EndSCHEMATC
